[0211/222348.930:ERROR:registration_protocol_win.cc(102)] CreateFile: The system cannot find the file specified. (0x2)
[0211/222951.438:ERROR:registration_protocol_win.cc(102)] CreateFile: The system cannot find the file specified. (0x2)
[0211/223546.971:ERROR:registration_protocol_win.cc(102)] CreateFile: The system cannot find the file specified. (0x2)
